[gd_scene load_steps=5 format=2]

[ext_resource path="res://Sprites/dialogue.png" type="Texture" id=1]
[ext_resource path="res://Scripts/DialogBox.gd" type="Script" id=2]
[ext_resource path="res://Scripts/RichTextLabel.gd" type="Script" id=3]
[ext_resource path="res://Sprites/player (4).png" type="Texture" id=4]

[node name="DialogBox" type="NinePatchRect"]

anchor_left = 0.0
anchor_top = 0.0
anchor_right = 0.0
anchor_bottom = 0.0
margin_left = 16.0
margin_top = 448.0
margin_right = 512.0
margin_bottom = 512.0
rect_scale = Vector2( 2, 2 )
rect_pivot_offset = Vector2( 0, 0 )
rect_clip_content = false
mouse_filter = 2
mouse_default_cursor_shape = 0
size_flags_horizontal = 1
size_flags_vertical = 1
texture = ExtResource( 1 )
patch_margin_left = 17
patch_margin_top = 5
patch_margin_right = 17
patch_margin_bottom = 5
script = ExtResource( 2 )
_sections_unfolded = [ "Anchor", "Grow Direction", "Hint", "Margin", "Patch Margin", "Rect" ]

[node name="RichTextLabel2" type="RichTextLabel" parent="." index="0"]

anchor_left = 0.0
anchor_top = 0.0
anchor_right = 0.0
anchor_bottom = 0.0
margin_left = 64.0
margin_top = 8.0
margin_right = 192.0
margin_bottom = 24.0
rect_pivot_offset = Vector2( 0, 0 )
rect_clip_content = true
focus_mode = 2
mouse_filter = 0
mouse_default_cursor_shape = 0
size_flags_horizontal = 1
size_flags_vertical = 1
custom_colors/default_color = Color( 0, 0, 0, 1 )
custom_colors/selection_color = Color( 0, 0, 0, 1 )
custom_colors/font_color_selected = Color( 0, 0, 0, 1 )
bbcode_enabled = true
bbcode_text = "Mr. Nobody"
visible_characters = -1
percent_visible = 1.0
meta_underlined = true
tab_size = 4
text = "Mr. Nobody"
scroll_active = true
scroll_following = false
selection_enabled = true
override_selected_font_color = false
_sections_unfolded = [ "Anchor", "BBCode", "Margin", "Rect", "Size Flags", "custom_colors", "custom_fonts", "custom_styles" ]

[node name="RichTextLabel" type="RichTextLabel" parent="." index="1"]

anchor_left = 0.0
anchor_top = 0.0
anchor_right = 0.0
anchor_bottom = 0.0
margin_left = 64.0
margin_top = 24.0
margin_right = 480.0
margin_bottom = 56.0
rect_pivot_offset = Vector2( 0, 0 )
rect_clip_content = true
mouse_filter = 0
mouse_default_cursor_shape = 0
size_flags_horizontal = 1
size_flags_vertical = 1
custom_colors/default_color = Color( 0, 0, 0, 1 )
custom_colors/selection_color = Color( 0, 0, 0, 1 )
custom_colors/font_color_selected = Color( 0, 0, 0, 1 )
bbcode_enabled = true
bbcode_text = ""
visible_characters = -1
percent_visible = 1.0
meta_underlined = true
tab_size = 4
text = ""
scroll_active = true
scroll_following = false
selection_enabled = false
override_selected_font_color = false
script = ExtResource( 3 )
_sections_unfolded = [ "BBCode", "Rect" ]

[node name="Timer" type="Timer" parent="." index="2"]

process_mode = 1
wait_time = 0.05
one_shot = false
autostart = true

[node name="Sprite" type="Sprite" parent="." index="3"]

position = Vector2( 32, 32 )
scale = Vector2( 3, 3 )
texture = ExtResource( 4 )
region_enabled = true
region_rect = Rect2( 0, 0, 16, 16 )
_sections_unfolded = [ "Region", "Transform" ]

[connection signal="hide" from="RichTextLabel" to="." method="_on_RichTextLabel_hide"]

[connection signal="timeout" from="Timer" to="RichTextLabel" method="_on_Timer_timeout"]


